Learn more about Sunny Lee
…
race_table <- as.data.frame(table(h233_categorized$RACETHX))
colnames(race_table) <- c("Race", "Count")
print(race_table, row.names = FALSE)

               Race Count
           Hispanic  6798
 Non-Hispanic White 15023
 Non-Hispanic Black  4071
 Non-Hispanic Asian  1385
 Non-Hispanic Other  1059

h233_categorized

# A tibble: 28,336 × 11
   DUPERSID   SDCHURCH SDCOMM SDCOMPAN SDFAMILY SDFRIENDS SDGETTGT
   <chr>         <dbl>  <dbl>    <dbl>    <dbl>     <dbl>    <dbl>
 1 2320005101        0      4        3        3         4        0
 2 2320005102       -1     -1       -1       -1        -1       -1
 3 2320006101        0      2        3        2         2        6
 4 2320006102        1      3        1        3         4        6
 5 2320006103        0      1        1        1         3        3
 6 2320012102        0      4        2        1         1      -15
 7 2320013101        0      2        2        1         1        2
 8 2320018101        6      1        3        1         2        0
 9 2320018102        6      1        1        2         2        2
10 2320018103        0      3        3        2         4        0
# ℹ 28,326 more rows
# ℹ 4 more variables: Perceived_Mental_Health <dbl>, SEX <fct>, RACETHX <fct>,
#   Social_Support_Sum <dbl>
…
